{
  "builds": [
    {
      "architecture": "x86_64",
      "valid": false,
      "compiler": "",
      "command": "",
      "config_name": "",
      "config_url": "",
      "log_url": "",
      "issues_occurrences": [],
      "variant": "debug",
      "misc": {
        "debug": true,
        "package_name": "kernel"
      }
    },
    {
      "architecture": "ppc64",
      "valid": false,
      "compiler": "",
      "command": "",
      "config_name": "",
      "config_url": "",
      "log_url": "",
      "issues_occurrences": [],
      "variant": "",
      "misc": {
        "debug": false,
        "package_name": "kernel"
      }
    },
    {
      "architecture": "aarch64",
      "valid": false,
      "compiler": "",
      "command": "",
      "config_name": "",
      "config_url": "",
      "log_url": "",
      "issues_occurrences": [],
      "variant": "64k",
      "misc": {
        "package_name": "kernel-64k"
      }
    },
    {
      "architecture": "aarch64",
      "valid": false,
      "compiler": "",
      "command": "",
      "config_name": "",
      "config_url": "",
      "log_url": "",
      "issues_occurrences": [],
      "variant": "64k-debug",
      "misc": {
        "debug": true,
        "package_name": "kernel-64k"
      }
    }
  ]
}
