{
    "version": {
        "major": 4,
        "minor": 2
    },
    "checkouts": [
        {
            "id": "redhat:1213601619",
            "origin": "redhat",
            "valid": true,
            "tree_name": "c9s",
            "misc": {
                "provenance": [
                    {
                        "function": "coordinator",
                        "url": "https://gitlab.com/redhat/red-hat-ci-tools/kernel/cki-internal-pipelines/cki-trusted-contributors/-/pipelines/1213601619",
                        "service_name": "gitlab"
                    }
                ],
                "retrigger": false,
                "scratch": true,
                "public": true,
                "is_public": true,
                "source_package_name": "kernel",
                "mr": {
                    "url": "https://gitlab.com/redhat/centos-stream/src/kernel/centos-stream-9/-/merge_requests/3829",
                    "id": 3829,
                    "diff_url": "https://s3.amazonaws.com/arr-cki-prod-trusted-artifacts/trusted-artifacts/1213601619/merge/6394361348/artifacts/mr.diff"
                },
                "patchset_modified_files": [
                    {
                        "path": "arch/arm/include/asm/arm_pmuv3.h"
                    },
                    {
                        "path": "arch/arm/kernel/perf_event_v6.c"
                    },
                    {
                        "path": "arch/arm/kernel/perf_event_v7.c"
                    },
                    {
                        "path": "arch/arm/kernel/perf_event_xscale.c"
                    },
                    {
                        "path": "arch/arm64/include/asm/arm_pmuv3.h"
                    },
                    {
                        "path": "arch/powerpc/perf/core-book3s.c"
                    },
                    {
                        "path": "arch/powerpc/perf/imc-pmu.c"
                    },
                    {
                        "path": "arch/powerpc/perf/power6-pmu.c"
                    },
                    {
                        "path": "arch/x86/events/core.c"
                    },
                    {
                        "path": "arch/x86/events/intel/core.c"
                    },
                    {
                        "path": "arch/x86/events/intel/cstate.c"
                    },
                    {
                        "path": "arch/x86/events/intel/ds.c"
                    },
                    {
                        "path": "arch/x86/events/intel/pt.c"
                    },
                    {
                        "path": "arch/x86/events/perf_event.h"
                    },
                    {
                        "path": "arch/x86/events/rapl.c"
                    },
                    {
                        "path": "arch/x86/kernel/smpboot.c"
                    },
                    {
                        "path": "drivers/perf/apple_m1_cpu_pmu.c"
                    },
                    {
                        "path": "drivers/perf/arm_cspmu/arm_cspmu.c"
                    },
                    {
                        "path": "drivers/perf/arm_pmu.c"
                    },
                    {
                        "path": "drivers/perf/arm_pmuv3.c"
                    },
                    {
                        "path": "include/linux/perf/arm_pmu.h"
                    },
                    {
                        "path": "include/linux/perf_event.h"
                    },
                    {
                        "path": "kernel/events/core.c"
                    },
                    {
                        "path": "kernel/events/ring_buffer.c"
                    },
                    {
                        "path": "kernel/sysctl.c"
                    },
                    {
                        "path": "tools/build/Makefile.feature"
                    },
                    {
                        "path": "tools/build/feature/Makefile"
                    },
                    {
                        "path": "tools/build/feature/test-dwarf_getcfi.c"
                    },
                    {
                        "path": "tools/build/feature/test-libopencsd.c"
                    },
                    {
                        "path": "tools/include/asm-generic/unaligned.h"
                    },
                    {
                        "path": "tools/include/uapi/linux/vhost.h"
                    },
                    {
                        "path": "tools/lib/api/fs/fs.c"
                    },
                    {
                        "path": "tools/lib/api/io.h"
                    },
                    {
                        "path": "tools/lib/perf/Documentation/examples/sampling.c"
                    },
                    {
                        "path": "tools/lib/perf/Documentation/libperf-sampling.txt"
                    },
                    {
                        "path": "tools/lib/perf/Documentation/libperf.txt"
                    },
                    {
                        "path": "tools/lib/perf/cpumap.c"
                    },
                    {
                        "path": "tools/lib/perf/evlist.c"
                    },
                    {
                        "path": "tools/lib/perf/evsel.c"
                    },
                    {
                        "path": "tools/lib/perf/include/internal/evlist.h"
                    },
                    {
                        "path": "tools/lib/perf/include/internal/mmap.h"
                    },
                    {
                        "path": "tools/lib/perf/include/internal/rc_check.h"
                    },
                    {
                        "path": "tools/lib/perf/include/perf/cpumap.h"
                    },
                    {
                        "path": "tools/lib/perf/libperf.map"
                    },
                    {
                        "path": "tools/lib/perf/mmap.c"
                    },
                    {
                        "path": "tools/lib/perf/tests/test-cpumap.c"
                    },
                    {
                        "path": "tools/lib/perf/tests/test-evlist.c"
                    },
                    {
                        "path": "tools/lib/perf/tests/test-evsel.c"
                    },
                    {
                        "path": "tools/lib/subcmd/help.c"
                    },
                    {
                        "path": "tools/perf/.gitignore"
                    },
                    {
                        "path": "tools/perf/Documentation/itrace.txt"
                    },
                    {
                        "path": "tools/perf/Documentation/perf-annotate.txt"
                    },
                    {
                        "path": "tools/perf/Documentation/perf-bench.txt"
                    },
                    {
                        "path": "tools/perf/Documentation/perf-config.txt"
                    },
                    {
                        "path": "tools/perf/Documentation/perf-kwork.txt"
                    },
                    {
                        "path": "tools/perf/Documentation/perf-list.txt"
                    },
                    {
                        "path": "tools/perf/Documentation/perf-lock.txt"
                    },
                    {
                        "path": "tools/perf/Documentation/perf-record.txt"
                    },
                    {
                        "path": "tools/perf/Documentation/perf-report.txt"
                    },
                    {
                        "path": "tools/perf/Documentation/perf-stat.txt"
                    },
                    {
                        "path": "tools/perf/Documentation/perf.txt"
                    },
                    {
                        "path": "tools/perf/MANIFEST"
                    },
                    {
                        "path": "tools/perf/Makefile.config"
                    },
                    {
                        "path": "tools/perf/Makefile.perf"
                    },
                    {
                        "path": "tools/perf/arch/arm/util/cs-etm.c"
                    },
                    {
                        "path": "tools/perf/arch/arm/util/pmu.c"
                    },
                    {
                        "path": "tools/perf/arch/arm64/util/arm-spe.c"
                    },
                    {
                        "path": "tools/perf/arch/arm64/util/header.c"
                    },
                    {
                        "path": "tools/perf/arch/arm64/util/pmu.c"
                    },
                    {
                        "path": "tools/perf/arch/loongarch/annotate/instructions.c"
                    },
                    {
                        "path": "tools/perf/arch/s390/util/pmu.c"
                    },
                    {
                        "path": "tools/perf/arch/x86/annotate/instructions.c"
                    },
                    {
                        "path": "tools/perf/arch/x86/tests/hybrid.c"
                    },
                    {
                        "path": "tools/perf/arch/x86/util/dwarf-regs.c"
                    },
                    {
                        "path": "tools/perf/arch/x86/util/event.c"
                    },
                    {
                        "path": "tools/perf/arch/x86/util/intel-bts.c"
                    },
                    {
                        "path": "tools/perf/arch/x86/util/intel-pt.c"
                    },
                    {
                        "path": "tools/perf/arch/x86/util/pmu.c"
                    },
                    {
                        "path": "tools/perf/bench/epoll-ctl.c"
                    },
                    {
                        "path": "tools/perf/bench/epoll-wait.c"
                    },
                    {
                        "path": "tools/perf/bench/futex-hash.c"
                    },
                    {
                        "path": "tools/perf/bench/futex-lock-pi.c"
                    },
                    {
                        "path": "tools/perf/bench/futex-requeue.c"
                    },
                    {
                        "path": "tools/perf/bench/futex-wake-parallel.c"
                    },
                    {
                        "path": "tools/perf/bench/futex-wake.c"
                    },
                    {
                        "path": "tools/perf/bench/sched-messaging.c"
                    },
                    {
                        "path": "tools/perf/bench/sched-pipe.c"
                    },
                    {
                        "path": "tools/perf/bench/uprobe.c"
                    },
                    {
                        "path": "tools/perf/builtin-annotate.c"
                    },
                    {
                        "path": "tools/perf/builtin-buildid-cache.c"
                    },
                    {
                        "path": "tools/perf/builtin-c2c.c"
                    },
                    {
                        "path": "tools/perf/builtin-ftrace.c"
                    },
                    {
                        "path": "tools/perf/builtin-inject.c"
                    },
                    {
                        "path": "tools/perf/builtin-kwork.c"
                    },
                    {
                        "path": "tools/perf/builtin-list.c"
                    },
                    {
                        "path": "tools/perf/builtin-lock.c"
                    },
                    {
                        "path": "tools/perf/builtin-record.c"
                    },
                    {
                        "path": "tools/perf/builtin-report.c"
                    },
                    {
                        "path": "tools/perf/builtin-sched.c"
                    },
                    {
                        "path": "tools/perf/builtin-script.c"
                    },
                    {
                        "path": "tools/perf/builtin-stat.c"
                    },
                    {
                        "path": "tools/perf/builtin-top.c"
                    },
                    {
                        "path": "tools/perf/builtin-trace.c"
                    },
                    {
                        "path": "tools/perf/builtin-version.c"
                    },
                    {
                        "path": "tools/perf/check-headers.sh"
                    },
                    {
                        "path": "tools/perf/perf-completion.sh"
                    },
                    {
                        "path": "tools/perf/perf.c"
                    },
                    {
                        "path": "tools/perf/pmu-events/arch/arm64/ampere/ampereone/core-imp-def.json"
                    },
                    {
                        "path": "tools/perf/pmu-events/arch/arm64/ampere/ampereone/metrics.json"
                    },
                    {
                        "path": "tools/perf/pmu-events/arch/arm64/ampere/ampereonex/branch.json"
                    },
                    {
                        "path": "tools/perf/pmu-events/arch/arm64/ampere/ampereonex/bus.json"
                    },
                    {
                        "path": "tools/perf/pmu-events/arch/arm64/ampere/ampereonex/cache.json"
                    },
                    {
                        "path": "tools/perf/pmu-events/arch/arm64/ampere/ampereonex/core-imp-def.json"
                    },
                    {
                        "path": "tools/perf/pmu-events/arch/arm64/ampere/ampereonex/exception.json"
                    },
                    {
                        "path": "tools/perf/pmu-events/arch/arm64/ampere/ampereonex/instruction.json"
                    },
                    {
                        "path": "tools/perf/pmu-events/arch/arm64/ampere/ampereonex/intrinsic.json"
                    },
                    {
                        "path": "tools/perf/pmu-events/arch/arm64/ampere/ampereonex/memory.json"
                    },
                    {
                        "path": "tools/perf/pmu-events/arch/arm64/ampere/ampereonex/metrics.json"
                    },
                    {
                        "path": "tools/perf/pmu-events/arch/arm64/ampere/ampereonex/mmu.json"
                    },
                    {
                        "path": "tools/perf/pmu-events/arch/arm64/ampere/ampereonex/pipeline.json"
                    },
                    {
                        "path": "tools/perf/pmu-events/arch/arm64/ampere/ampereonex/spe.json"
                    },
                    {
                        "path": "tools/perf/pmu-events/arch/arm64/arm/cmn/sys/cmn.json"
                    },
                    {
                        "path": "tools/perf/pmu-events/arch/arm64/arm/cmn/sys/metric.json"
                    },
                    {
                        "path": "tools/perf/pmu-events/arch/arm64/arm/neoverse-v1/branch.json"
                    },
                    {
                        "path": "tools/perf/pmu-events/arch/arm64/arm/neoverse-v1/bus.json"
                    },
                    {
                        "path": "tools/perf/pmu-events/arch/arm64/arm/neoverse-v1/cache.json"
                    },
                    {
                        "path": "tools/perf/pmu-events/arch/arm64/arm/neoverse-v1/exception.json"
                    },
                    {
                        "path": "tools/perf/pmu-events/arch/arm64/arm/neoverse-v1/fp_operation.json"
                    },
                    {
                        "path": "tools/perf/pmu-events/arch/arm64/arm/neoverse-v1/general.json"
                    },
                    {
                        "path": "tools/perf/pmu-events/arch/arm64/arm/neoverse-v1/instruction.json"
                    },
                    {
                        "path": "tools/perf/pmu-events/arch/arm64/arm/neoverse-v1/l1d_cache.json"
                    },
                    {
                        "path": "tools/perf/pmu-events/arch/arm64/arm/neoverse-v1/l1i_cache.json"
                    },
                    {
                        "path": "tools/perf/pmu-events/arch/arm64/arm/neoverse-v1/l2_cache.json"
                    },
                    {
                        "path": "tools/perf/pmu-events/arch/arm64/arm/neoverse-v1/l3_cache.json"
                    },
                    {
                        "path": "tools/perf/pmu-events/arch/arm64/arm/neoverse-v1/ll_cache.json"
                    },
                    {
                        "path": "tools/perf/pmu-events/arch/arm64/arm/neoverse-v1/memory.json"
                    },
                    {
                        "path": "tools/perf/pmu-events/arch/arm64/arm/neoverse-v1/metrics.json"
                    },
                    {
                        "path": "tools/perf/pmu-events/arch/arm64/arm/neoverse-v1/pipeline.json"
                    },
                    {
                        "path": "tools/perf/pmu-events/arch/arm64/arm/neoverse-v1/retired.json"
                    },
                    {
                        "path": "tools/perf/pmu-events/arch/arm64/arm/neoverse-v1/spe.json"
                    },
                    {
                        "path": "tools/perf/pmu-events/arch/arm64/arm/neoverse-v1/spec_operation.json"
                    },
                    {
                        "path": "tools/perf/pmu-events/arch/arm64/arm/neoverse-v1/stall.json"
                    },
                    {
                        "path": "tools/perf/pmu-events/arch/arm64/arm/neoverse-v1/sve.json"
                    },
                    {
                        "path": "tools/perf/pmu-events/arch/arm64/arm/neoverse-v1/tlb.json"
                    },
                    {
                        "path": "tools/perf/pmu-events/arch/arm64/mapfile.csv"
                    },
                    {
                        "path": "tools/perf/pmu-events/arch/nds32/mapfile.csv"
                    },
                    {
                        "path": "tools/perf/pmu-events/arch/powerpc/mapfile.csv"
                    },
                    {
                        "path": "tools/perf/pmu-events/arch/powerpc/power10/datasource.json"
                    },
                    {
                        "path": "tools/perf/pmu-events/arch/powerpc/power10/metrics.json"
                    },
                    {
                        "path": "tools/perf/pmu-events/arch/powerpc/power10/others.json"
                    },
                    {
                        "path": "tools/perf/pmu-events/arch/powerpc/power10/translation.json"
                    },
                    {
                        "path": "tools/perf/pmu-events/arch/riscv/mapfile.csv"
                    },
                    {
                        "path": "tools/perf/pmu-events/arch/riscv/starfive/dubhe-80/common.json"
                    },
                    {
                        "path": "tools/perf/pmu-events/arch/riscv/starfive/dubhe-80/firmware.json"
                    },
                    {
                        "path": "tools/perf/pmu-events/arch/riscv/thead/c900-legacy/cache.json"
                    },
                    {
                        "path": "tools/perf/pmu-events/arch/riscv/thead/c900-legacy/firmware.json"
                    },
                    {
                        "path": "tools/perf/pmu-events/arch/riscv/thead/c900-legacy/instruction.json"
                    },
                    {
                        "path": "tools/perf/pmu-events/arch/riscv/thead/c900-legacy/microarch.json"
                    },
                    {
                        "path": "tools/perf/pmu-events/arch/test/test_soc/sys/uncore.json"
                    },
                    {
                        "path": "tools/perf/pmu-events/arch/x86/alderlake/adl-metrics.json"
                    },
                    {
                        "path": "tools/perf/pmu-events/arch/x86/alderlake/frontend.json"
                    },
                    {
                        "path": "tools/perf/pmu-events/arch/x86/alderlake/memory.json"
                    },
                    {
                        "path": "tools/perf/pmu-events/arch/x86/alderlake/pipeline.json"
                    },
                    {
                        "path": "tools/perf/pmu-events/arch/x86/alderlake/uncore-interconnect.json"
                    },
                    {
                        "path": "tools/perf/pmu-events/arch/x86/alderlaken/adln-metrics.json"
                    },
                    {
                        "path": "tools/perf/pmu-events/arch/x86/alderlaken/memory.json"
                    },
                    {
                        "path": "tools/perf/pmu-events/arch/x86/alderlaken/pipeline.json"
                    },
                    {
                        "path": "tools/perf/pmu-events/arch/x86/alderlaken/uncore-interconnect.json"
                    },
                    {
                        "path": "tools/perf/pmu-events/arch/x86/amdzen4/memory-controller.json"
                    },
                    {
                        "path": "tools/perf/pmu-events/arch/x86/amdzen4/recommended.json"
                    },
                    {
                        "path": "tools/perf/pmu-events/arch/x86/bonnell/frontend.json"
                    },
                    {
                        "path": "tools/perf/pmu-events/arch/x86/broadwellde/bdwde-metrics.json"
                    },
                    {
                        "path": "tools/perf/pmu-events/arch/x86/broadwellde/uncore-interconnect.json"
                    },
                    {
                        "path": "tools/perf/pmu-events/arch/x86/broadwellx/uncore-interconnect.json"
                    },
                    {
                        "path": "tools/perf/pmu-events/arch/x86/cascadelakex/clx-metrics.json"
                    },
                    {
                        "path": "tools/perf/pmu-events/arch/x86/emeraldrapids/cache.json"
                    },
                    {
                        "path": "tools/perf/pmu-events/arch/x86/emeraldrapids/floating-point.json"
                    },
                    {
                        "path": "tools/perf/pmu-events/arch/x86/emeraldrapids/frontend.json"
                    },
                    {
                        "path": "tools/perf/pmu-events/arch/x86/emeraldrapids/memory.json"
                    },
                    {
                        "path": "tools/perf/pmu-events/arch/x86/emeraldrapids/other.json"
                    },
                    {
                        "path": "tools/perf/pmu-events/arch/x86/emeraldrapids/pipeline.json"
                    },
                    {
                        "path": "tools/perf/pmu-events/arch/x86/emeraldrapids/uncore-cache.json"
                    },
                    {
                        "path": "tools/perf/pmu-events/arch/x86/emeraldrapids/uncore-cxl.json"
                    },
                    {
                        "path": "tools/perf/pmu-events/arch/x86/emeraldrapids/uncore-interconnect.json"
                    },
                    {
                        "path": "tools/perf/pmu-events/arch/x86/emeraldrapids/uncore-io.json"
                    },
                    {
                        "path": "tools/perf/pmu-events/arch/x86/emeraldrapids/uncore-memory.json"
                    },
                    {
                        "path": "tools/perf/pmu-events/arch/x86/emeraldrapids/uncore-power.json"
                    },
                    {
                        "path": "tools/perf/pmu-events/arch/x86/emeraldrapids/virtual-memory.json"
                    },
                    {
                        "path": "tools/perf/pmu-events/arch/x86/haswellx/uncore-interconnect.json"
                    },
                    {
                        "path": "tools/perf/pmu-events/arch/x86/icelake/icl-metrics.json"
                    },
                    {
                        "path": "tools/perf/pmu-events/arch/x86/icelakex/icx-metrics.json"
                    },
                    {
                        "path": "tools/perf/pmu-events/arch/x86/icelakex/other.json"
                    },
                    {
                        "path": "tools/perf/pmu-events/arch/x86/icelakex/pipeline.json"
                    },
                    {
                        "path": "tools/perf/pmu-events/arch/x86/icelakex/uncore-interconnect.json"
                    },
                    {
                        "path": "tools/perf/pmu-events/arch/x86/ivybridge/cache.json"
                    },
                    {
                        "path": "tools/perf/pmu-events/arch/x86/ivybridge/floating-point.json"
                    },
                    {
                        "path": "tools/perf/pmu-events/arch/x86/ivybridge/frontend.json"
                    },
                    {
                        "path": "tools/perf/pmu-events/arch/x86/ivytown/cache.json"
                    },
                    {
                        "path": "tools/perf/pmu-events/arch/x86/ivytown/uncore-interconnect.json"
                    },
                    {
                        "path": "tools/perf/pmu-events/arch/x86/jaketown/uncore-interconnect.json"
                    },
                    {
                        "path": "tools/perf/pmu-events/arch/x86/knightslanding/cache.json"
                    },
                    {
                        "path": "tools/perf/pmu-events/arch/x86/knightslanding/floating-point.json"
                    },
                    {
                        "path": "tools/perf/pmu-events/arch/x86/knightslanding/pipeline.json"
                    },
                    {
                        "path": "tools/perf/pmu-events/arch/x86/knightslanding/uncore-cache.json"
                    },
                    {
                        "path": "tools/perf/pmu-events/arch/x86/knightslanding/virtual-memory.json"
                    },
                    {
                        "path": "tools/perf/pmu-events/arch/x86/lunarlake/cache.json"
                    },
                    {
                        "path": "tools/perf/pmu-events/arch/x86/lunarlake/frontend.json"
                    },
                    {
                        "path": "tools/perf/pmu-events/arch/x86/lunarlake/memory.json"
                    },
                    {
                        "path": "tools/perf/pmu-events/arch/x86/lunarlake/other.json"
                    },
                    {
                        "path": "tools/perf/pmu-events/arch/x86/lunarlake/pipeline.json"
                    },
                    {
                        "path": "tools/perf/pmu-events/arch/x86/lunarlake/virtual-memory.json"
                    },
                    {
                        "path": "tools/perf/pmu-events/arch/x86/mapfile.csv"
                    },
                    {
                        "path": "tools/perf/pmu-events/arch/x86/meteorlake/cache.json"
                    },
                    {
                        "path": "tools/perf/pmu-events/arch/x86/meteorlake/frontend.json"
                    },
                    {
                        "path": "tools/perf/pmu-events/arch/x86/meteorlake/memory.json"
                    },
                    {
                        "path": "tools/perf/pmu-events/arch/x86/meteorlake/other.json"
                    },
                    {
                        "path": "tools/perf/pmu-events/arch/x86/meteorlake/pipeline.json"
                    },
                    {
                        "path": "tools/perf/pmu-events/arch/x86/meteorlake/uncore-other.json"
                    },
                    {
                        "path": "tools/perf/pmu-events/arch/x86/nehalemep/cache.json"
                    },
                    {
                        "path": "tools/perf/pmu-events/arch/x86/nehalemep/floating-point.json"
                    },
                    {
                        "path": "tools/perf/pmu-events/arch/x86/nehalemex/cache.json"
                    },
                    {
                        "path": "tools/perf/pmu-events/arch/x86/nehalemex/floating-point.json"
                    },
                    {
                        "path": "tools/perf/pmu-events/arch/x86/rocketlake/rkl-metrics.json"
                    },
                    {
                        "path": "tools/perf/pmu-events/arch/x86/sapphirerapids/floating-point.json"
                    },
                    {
                        "path": "tools/perf/pmu-events/arch/x86/sapphirerapids/frontend.json"
                    },
                    {
                        "path": "tools/perf/pmu-events/arch/x86/sapphirerapids/pipeline.json"
                    },
                    {
                        "path": "tools/perf/pmu-events/arch/x86/sapphirerapids/spr-metrics.json"
                    },
                    {
                        "path": "tools/perf/pmu-events/arch/x86/sapphirerapids/uncore-cache.json"
                    },
                    {
                        "path": "tools/perf/pmu-events/arch/x86/sapphirerapids/uncore-interconnect.json"
                    },
                    {
                        "path": "tools/perf/pmu-events/arch/x86/sapphirerapids/uncore-io.json"
                    },
                    {
                        "path": "tools/perf/pmu-events/arch/x86/skylake/skl-metrics.json"
                    },
                    {
                        "path": "tools/perf/pmu-events/arch/x86/skylakex/skx-metrics.json"
                    },
                    {
                        "path": "tools/perf/pmu-events/arch/x86/tigerlake/tgl-metrics.json"
                    },
                    {
                        "path": "tools/perf/pmu-events/arch/x86/westmereep-dp/floating-point.json"
                    },
                    {
                        "path": "tools/perf/pmu-events/arch/x86/westmereep-sp/cache.json"
                    },
                    {
                        "path": "tools/perf/pmu-events/arch/x86/westmereep-sp/floating-point.json"
                    },
                    {
                        "path": "tools/perf/pmu-events/arch/x86/westmereex/cache.json"
                    },
                    {
                        "path": "tools/perf/pmu-events/arch/x86/westmereex/floating-point.json"
                    },
                    {
                        "path": "tools/perf/pmu-events/arch/x86/westmereex/pipeline.json"
                    },
                    {
                        "path": "tools/perf/pmu-events/empty-pmu-events.c"
                    },
                    {
                        "path": "tools/perf/pmu-events/jevents.py"
                    },
                    {
                        "path": "tools/perf/pmu-events/metric.py"
                    },
                    {
                        "path": "tools/perf/scripts/python/arm-cs-trace-disasm.py"
                    },
                    {
                        "path": "tools/perf/scripts/python/compaction-times.py"
                    },
                    {
                        "path": "tools/perf/scripts/python/exported-sql-viewer.py"
                    },
                    {
                        "path": "tools/perf/tests/Build"
                    },
                    {
                        "path": "tools/perf/tests/attr.c"
                    },
                    {
                        "path": "tools/perf/tests/attr/base-record"
                    },
                    {
                        "path": "tools/perf/tests/attr/system-wide-dummy"
                    },
                    {
                        "path": "tools/perf/tests/attr/test-record-C0"
                    },
                    {
                        "path": "tools/perf/tests/attr/test-record-dummy-C0"
                    },
                    {
                        "path": "tools/perf/tests/builtin-test.c"
                    },
                    {
                        "path": "tools/perf/tests/code-reading.c"
                    },
                    {
                        "path": "tools/perf/tests/cpumap.c"
                    },
                    {
                        "path": "tools/perf/tests/dso-data.c"
                    },
                    {
                        "path": "tools/perf/tests/expr.c"
                    },
                    {
                        "path": "tools/perf/tests/hists_link.c"
                    },
                    {
                        "path": "tools/perf/tests/keep-tracking.c"
                    },
                    {
                        "path": "tools/perf/tests/make"
                    },
                    {
                        "path": "tools/perf/tests/maps.c"
                    },
                    {
                        "path": "tools/perf/tests/mmap-basic.c"
                    },
                    {
                        "path": "tools/perf/tests/openat-syscall-all-cpus.c"
                    },
                    {
                        "path": "tools/perf/tests/parse-events.c"
                    },
                    {
                        "path": "tools/perf/tests/perf-time-to-tsc.c"
                    },
                    {
                        "path": "tools/perf/tests/pmu-events.c"
                    },
                    {
                        "path": "tools/perf/tests/pmu.c"
                    },
                    {
                        "path": "tools/perf/tests/shell/coresight/asm_pure_loop.sh"
                    },
                    {
                        "path": "tools/perf/tests/shell/coresight/memcpy_thread/memcpy_thread.c"
                    },
                    {
                        "path": "tools/perf/tests/shell/coresight/memcpy_thread_16k_10.sh"
                    },
                    {
                        "path": "tools/perf/tests/shell/coresight/thread_loop/thread_loop.c"
                    },
                    {
                        "path": "tools/perf/tests/shell/coresight/thread_loop_check_tid_10.sh"
                    },
                    {
                        "path": "tools/perf/tests/shell/coresight/thread_loop_check_tid_2.sh"
                    },
                    {
                        "path": "tools/perf/tests/shell/coresight/unroll_loop_thread/unroll_loop_thread.c"
                    },
                    {
                        "path": "tools/perf/tests/shell/coresight/unroll_loop_thread_10.sh"
                    },
                    {
                        "path": "tools/perf/tests/shell/daemon.sh"
                    },
                    {
                        "path": "tools/perf/tests/shell/diff.sh"
                    },
                    {
                        "path": "tools/perf/tests/shell/lib/perf_has_symbol.sh"
                    },
                    {
                        "path": "tools/perf/tests/shell/lib/setup_python.sh"
                    },
                    {
                        "path": "tools/perf/tests/shell/list.sh"
                    },
                    {
                        "path": "tools/perf/tests/shell/lock_contention.sh"
                    },
                    {
                        "path": "tools/perf/tests/shell/pipe_test.sh"
                    },
                    {
                        "path": "tools/perf/tests/shell/probe_vfs_getname.sh"
                    },
                    {
                        "path": "tools/perf/tests/shell/record+probe_libc_inet_pton.sh"
                    },
                    {
                        "path": "tools/perf/tests/shell/record+script_probe_vfs_getname.sh"
                    },
                    {
                        "path": "tools/perf/tests/shell/record.sh"
                    },
                    {
                        "path": "tools/perf/tests/shell/record_offcpu.sh"
                    },
                    {
                        "path": "tools/perf/tests/shell/record_sideband.sh"
                    },
                    {
                        "path": "tools/perf/tests/shell/script.sh"
                    },
                    {
                        "path": "tools/perf/tests/shell/stat+csv_output.sh"
                    },
                    {
                        "path": "tools/perf/tests/shell/stat+csv_summary.sh"
                    },
                    {
                        "path": "tools/perf/tests/shell/stat+json_output.sh"
                    },
                    {
                        "path": "tools/perf/tests/shell/stat+shadow_stat.sh"
                    },
                    {
                        "path": "tools/perf/tests/shell/stat+std_output.sh"
                    },
                    {
                        "path": "tools/perf/tests/shell/stat_all_metricgroups.sh"
                    },
                    {
                        "path": "tools/perf/tests/shell/stat_all_pmu.sh"
                    },
                    {
                        "path": "tools/perf/tests/shell/stat_metrics_values.sh"
                    },
                    {
                        "path": "tools/perf/tests/shell/test_arm_callgraph_fp.sh"
                    },
                    {
                        "path": "tools/perf/tests/shell/test_arm_coresight.sh"
                    },
                    {
                        "path": "tools/perf/tests/shell/test_brstack.sh"
                    },
                    {
                        "path": "tools/perf/tests/shell/test_data_symbol.sh"
                    },
                    {
                        "path": "tools/perf/tests/shell/test_intel_pt.sh"
                    },
                    {
                        "path": "tools/perf/tests/shell/test_perf_data_converter_json.sh"
                    },
                    {
                        "path": "tools/perf/tests/shell/trace+probe_vfs_getname.sh"
                    },
                    {
                        "path": "tools/perf/tests/sigtrap.c"
                    },
                    {
                        "path": "tools/perf/tests/sw-clock.c"
                    },
                    {
                        "path": "tools/perf/tests/switch-tracking.c"
                    },
                    {
                        "path": "tools/perf/tests/task-exit.c"
                    },
                    {
                        "path": "tools/perf/tests/tests.h"
                    },
                    {
                        "path": "tools/perf/tests/thread-maps-share.c"
                    },
                    {
                        "path": "tools/perf/tests/topology.c"
                    },
                    {
                        "path": "tools/perf/tests/util.c"
                    },
                    {
                        "path": "tools/perf/tests/vmlinux-kallsyms.c"
                    },
                    {
                        "path": "tools/perf/tests/workloads/thloop.c"
                    },
                    {
                        "path": "tools/perf/trace/beauty/arch_errno_names.sh"
                    },
                    {
                        "path": "tools/perf/trace/beauty/beauty.h"
                    },
                    {
                        "path": "tools/perf/trace/beauty/include/linux/socket.h"
                    },
                    {
                        "path": "tools/perf/trace/beauty/prctl_option.sh"
                    },
                    {
                        "path": "tools/perf/trace/beauty/socket.sh"
                    },
                    {
                        "path": "tools/perf/ui/browsers/annotate.c"
                    },
                    {
                        "path": "tools/perf/ui/browsers/hists.c"
                    },
                    {
                        "path": "tools/perf/ui/browsers/hists.h"
                    },
                    {
                        "path": "tools/perf/ui/browsers/scripts.c"
                    },
                    {
                        "path": "tools/perf/ui/gtk/annotate.c"
                    },
                    {
                        "path": "tools/perf/ui/gtk/gtk.h"
                    },
                    {
                        "path": "tools/perf/ui/tui/setup.c"
                    },
                    {
                        "path": "tools/perf/util/Build"
                    },
                    {
                        "path": "tools/perf/util/annotate-data.c"
                    },
                    {
                        "path": "tools/perf/util/annotate-data.h"
                    },
                    {
                        "path": "tools/perf/util/annotate.c"
                    },
                    {
                        "path": "tools/perf/util/annotate.h"
                    },
                    {
                        "path": "tools/perf/util/arm-spe.h"
                    },
                    {
                        "path": "tools/perf/util/auxtrace.c"
                    },
                    {
                        "path": "tools/perf/util/auxtrace.h"
                    },
                    {
                        "path": "tools/perf/util/block-info.c"
                    },
                    {
                        "path": "tools/perf/util/block-info.h"
                    },
                    {
                        "path": "tools/perf/util/block-range.c"
                    },
                    {
                        "path": "tools/perf/util/bpf-event.c"
                    },
                    {
                        "path": "tools/perf/util/bpf-event.h"
                    },
                    {
                        "path": "tools/perf/util/bpf-filter.y"
                    },
                    {
                        "path": "tools/perf/util/bpf_counter.c"
                    },
                    {
                        "path": "tools/perf/util/bpf_kwork_top.c"
                    },
                    {
                        "path": "tools/perf/util/bpf_lock_contention.c"
                    },
                    {
                        "path": "tools/perf/util/bpf_off_cpu.c"
                    },
                    {
                        "path": "tools/perf/util/bpf_skel/augmented_raw_syscalls.bpf.c"
                    },
                    {
                        "path": "tools/perf/util/bpf_skel/kwork_top.bpf.c"
                    },
                    {
                        "path": "tools/perf/util/bpf_skel/lock_contention.bpf.c"
                    },
                    {
                        "path": "tools/perf/util/bpf_skel/lock_data.h"
                    },
                    {
                        "path": "tools/perf/util/bpf_skel/vmlinux/.gitignore"
                    },
                    {
                        "path": "tools/perf/util/branch.c"
                    },
                    {
                        "path": "tools/perf/util/branch.h"
                    },
                    {
                        "path": "tools/perf/util/callchain.c"
                    },
                    {
                        "path": "tools/perf/util/callchain.h"
                    },
                    {
                        "path": "tools/perf/util/cgroup.c"
                    },
                    {
                        "path": "tools/perf/util/cgroup.h"
                    },
                    {
                        "path": "tools/perf/util/compress.h"
                    },
                    {
                        "path": "tools/perf/util/cpumap.c"
                    },
                    {
                        "path": "tools/perf/util/cputopo.c"
                    },
                    {
                        "path": "tools/perf/util/cs-etm.c"
                    },
                    {
                        "path": "tools/perf/util/cs-etm.h"
                    },
                    {
                        "path": "tools/perf/util/data.c"
                    },
                    {
                        "path": "tools/perf/util/db-export.c"
                    },
                    {
                        "path": "tools/perf/util/debug.c"
                    },
                    {
                        "path": "tools/perf/util/debug.h"
                    },
                    {
                        "path": "tools/perf/util/debuginfo.c"
                    },
                    {
                        "path": "tools/perf/util/debuginfo.h"
                    },
                    {
                        "path": "tools/perf/util/dlfilter.c"
                    },
                    {
                        "path": "tools/perf/util/dso.c"
                    },
                    {
                        "path": "tools/perf/util/dso.h"
                    },
                    {
                        "path": "tools/perf/util/dwarf-aux.c"
                    },
                    {
                        "path": "tools/perf/util/dwarf-aux.h"
                    },
                    {
                        "path": "tools/perf/util/dwarf-regs.c"
                    },
                    {
                        "path": "tools/perf/util/env.c"
                    },
                    {
                        "path": "tools/perf/util/env.h"
                    },
                    {
                        "path": "tools/perf/util/event.c"
                    },
                    {
                        "path": "tools/perf/util/evlist.c"
                    },
                    {
                        "path": "tools/perf/util/evlist.h"
                    },
                    {
                        "path": "tools/perf/util/evsel.c"
                    },
                    {
                        "path": "tools/perf/util/evsel.h"
                    },
                    {
                        "path": "tools/perf/util/expr.c"
                    },
                    {
                        "path": "tools/perf/util/expr.y"
                    },
                    {
                        "path": "tools/perf/util/genelf.c"
                    },
                    {
                        "path": "tools/perf/util/header.c"
                    },
                    {
                        "path": "tools/perf/util/hisi-ptt.c"
                    },
                    {
                        "path": "tools/perf/util/hist.c"
                    },
                    {
                        "path": "tools/perf/util/hist.h"
                    },
                    {
                        "path": "tools/perf/util/include/dwarf-regs.h"
                    },
                    {
                        "path": "tools/perf/util/intel-pt-decoder/intel-pt-pkt-decoder.c"
                    },
                    {
                        "path": "tools/perf/util/intel-pt.c"
                    },
                    {
                        "path": "tools/perf/util/intel-pt.h"
                    },
                    {
                        "path": "tools/perf/util/jitdump.c"
                    },
                    {
                        "path": "tools/perf/util/kwork.h"
                    },
                    {
                        "path": "tools/perf/util/lock-contention.h"
                    },
                    {
                        "path": "tools/perf/util/machine.c"
                    },
                    {
                        "path": "tools/perf/util/machine.h"
                    },
                    {
                        "path": "tools/perf/util/map.c"
                    },
                    {
                        "path": "tools/perf/util/map.h"
                    },
                    {
                        "path": "tools/perf/util/map_symbol.c"
                    },
                    {
                        "path": "tools/perf/util/map_symbol.h"
                    },
                    {
                        "path": "tools/perf/util/maps.c"
                    },
                    {
                        "path": "tools/perf/util/maps.h"
                    },
                    {
                        "path": "tools/perf/util/mem-events.c"
                    },
                    {
                        "path": "tools/perf/util/metricgroup.c"
                    },
                    {
                        "path": "tools/perf/util/mmap.c"
                    },
                    {
                        "path": "tools/perf/util/mmap.h"
                    },
                    {
                        "path": "tools/perf/util/parse-events.c"
                    },
                    {
                        "path": "tools/perf/util/parse-events.h"
                    },
                    {
                        "path": "tools/perf/util/parse-events.l"
                    },
                    {
                        "path": "tools/perf/util/parse-events.y"
                    },
                    {
                        "path": "tools/perf/util/perf_api_probe.c"
                    },
                    {
                        "path": "tools/perf/util/pfm.c"
                    },
                    {
                        "path": "tools/perf/util/pmu.c"
                    },
                    {
                        "path": "tools/perf/util/pmu.h"
                    },
                    {
                        "path": "tools/perf/util/pmu.y"
                    },
                    {
                        "path": "tools/perf/util/pmus.c"
                    },
                    {
                        "path": "tools/perf/util/print-events.c"
                    },
                    {
                        "path": "tools/perf/util/probe-event.c"
                    },
                    {
                        "path": "tools/perf/util/probe-finder.c"
                    },
                    {
                        "path": "tools/perf/util/probe-finder.h"
                    },
                    {
                        "path": "tools/perf/util/python-ext-sources"
                    },
                    {
                        "path": "tools/perf/util/python.c"
                    },
                    {
                        "path": "tools/perf/util/record.c"
                    },
                    {
                        "path": "tools/perf/util/rlimit.c"
                    },
                    {
                        "path": "tools/perf/util/rlimit.h"
                    },
                    {
                        "path": "tools/perf/util/rwsem.c"
                    },
                    {
                        "path": "tools/perf/util/rwsem.h"
                    },
                    {
                        "path": "tools/perf/util/s390-cpumcf-kernel.h"
                    },
                    {
                        "path": "tools/perf/util/s390-sample-raw.c"
                    },
                    {
                        "path": "tools/perf/util/scripting-engines/trace-event-perl.c"
                    },
                    {
                        "path": "tools/perf/util/scripting-engines/trace-event-python.c"
                    },
                    {
                        "path": "tools/perf/util/session.c"
                    },
                    {
                        "path": "tools/perf/util/sort.c"
                    },
                    {
                        "path": "tools/perf/util/sort.h"
                    },
                    {
                        "path": "tools/perf/util/stat-display.c"
                    },
                    {
                        "path": "tools/perf/util/stat-shadow.c"
                    },
                    {
                        "path": "tools/perf/util/stat.c"
                    },
                    {
                        "path": "tools/perf/util/stat.h"
                    },
                    {
                        "path": "tools/perf/util/string.c"
                    },
                    {
                        "path": "tools/perf/util/string2.h"
                    },
                    {
                        "path": "tools/perf/util/svghelper.c"
                    },
                    {
                        "path": "tools/perf/util/symbol-elf.c"
                    },
                    {
                        "path": "tools/perf/util/symbol-minimal.c"
                    },
                    {
                        "path": "tools/perf/util/symbol.c"
                    },
                    {
                        "path": "tools/perf/util/symbol.h"
                    },
                    {
                        "path": "tools/perf/util/symbol_conf.h"
                    },
                    {
                        "path": "tools/perf/util/synthetic-events.c"
                    },
                    {
                        "path": "tools/perf/util/thread.c"
                    },
                    {
                        "path": "tools/perf/util/thread.h"
                    },
                    {
                        "path": "tools/perf/util/top.c"
                    },
                    {
                        "path": "tools/perf/util/top.h"
                    },
                    {
                        "path": "tools/perf/util/trace-event-info.c"
                    },
                    {
                        "path": "tools/perf/util/unwind-libdw.c"
                    },
                    {
                        "path": "tools/perf/util/unwind-libunwind-local.c"
                    },
                    {
                        "path": "tools/perf/util/vdso.c"
                    },
                    {
                        "path": "tools/perf/util/zstd.c"
                    }
                ],
                "affected_subsystems": [
                    {
                        "name": "ARM64 PORT (AARCH64 ARCHITECTURE)",
                        "label": "arm64"
                    },
                    {
                        "name": "ARM PMU PROFILING AND DEBUGGING",
                        "label": "arm_pmu"
                    },
                    {
                        "name": "ARM PORT",
                        "label": "armport"
                    },
                    {
                        "name": "BPF (Safe dynamic programs and tools)",
                        "label": "bpf"
                    },
                    {
                        "name": "FUTEX SUBSYSTEM",
                        "label": "futex"
                    },
                    {
                        "name": "KERNEL INIT (and related code)",
                        "label": "kernelinit"
                    },
                    {
                        "name": "PERFORMANCE EVENTS SUBSYSTEM",
                        "label": "perf"
                    },
                    {
                        "name": "POWERPC (64-BIT)",
                        "label": "ppc64"
                    },
                    {
                        "name": "X86 ARCHITECTURE",
                        "label": "x86"
                    }
                ],
                "kernel_version": "5.14.0-429.3829_1213601405.el9",
                "source_package_version": "5.14.0",
                "source_package_release": "429.3829_1213601405.el9"
            },
            "start_time": "2024-03-14T13:58:12.599887+00:00",
            "contacts": [],
            "git_repository_url": "https://gitlab.com/redhat/centos-stream/src/kernel/centos-stream-9.git",
            "git_repository_branch": "main",
            "patchset_hash": "",
            "git_commit_name": "kernel-5.14.0-429.el9-400-g309888a6fd6e",
            "comment": "Merge: Draft: perf: Sync with upstream v6.8",
            "git_commit_hash": "309888a6fd6e25c9d75982ba23f5e7adb40dcd32"
        }
    ],
    "builds": [
        {
            "id": "redhat:1213601619-x86_64-kernel",
            "origin": "redhat",
            "checkout_id": "redhat:1213601619",
            "architecture": "x86_64",
            "misc": {
                "debug": false
            },
            "duration": 445
        },
        {
            "id": "redhat:1213601619-ppc64le-kernel",
            "origin": "redhat",
            "checkout_id": "redhat:1213601619",
            "architecture": "ppc64le",
            "misc": {
                "debug": false
            },
            "duration": 445
        },
        {
            "id": "redhat:1213601619-aarch64-kernel",
            "origin": "redhat",
            "checkout_id": "redhat:1213601619",
            "architecture": "aarch64",
            "misc": {
                "debug": false,
                "provenance": [
                    {
                        "function": "executor",
                        "url": "https://gitlab.com/redhat/red-hat-ci-tools/kernel/cki-internal-pipelines/cki-trusted-contributors/-/jobs/6394361429",
                        "service_name": "gitlab"
                    }
                ],
                "package_name": "kernel",
                "package_version": "5.14.0",
                "package_release": "429.3829_1213601405.el9"
            },
            "duration": 445,
            "start_time": "2024-03-14T14:11:33.677949+00:00",
            "comment": "CKI build of c9s",
            "compiler": "gcc (GCC) 11.4.1 20231218 (Red Hat 11.4.1-3)",
            "log_url": "https://s3.amazonaws.com/arr-cki-prod-trusted-artifacts/trusted-artifacts/1213601619/build_aarch64/6394361429/artifacts/build.log",
            "config_url": "https://s3.amazonaws.com/arr-cki-prod-trusted-artifacts/trusted-artifacts/1213601619/build_aarch64/6394361429/artifacts/kernel-aarch64.config",
            "config_name": "srpm: kernel-aarch64.config",
            "command": "rpmbuild --target aarch64 --with up --with zfcpdump --without trace --without arm64_16k --without arm64_64k --without base --without debug --without realtime",
            "valid": false,
            "log_excerpt": "00:08:21   diff -u tools/arch/arm64/include/asm/cputype.h arch/arm64/include/asm/cputype.h\n00:08:21   diff -u tools/include/asm-generic/unaligned.h include/asm-generic/unaligned.h\n00:08:21   diff -u tools/perf/trace/beauty/include/linux/socket.h include/linux/socket.h\n00:08:21   diff -u tools/perf/util/hashmap.h tools/lib/bpf/hashmap.h\n00:08:21 /usr/bin/make FIXDEP=1 -f Makefile.perf \n00:08:25 Makefile.config:528: *** Error: No libopencsd library found or the version is not up-to-date. Please install recent libopencsd to build with CORESIGHT=1.  Stop.\n00:08:25 make[1]: *** [Makefile.perf:261: sub-make] Error 2\n00:08:25 make: *** [Makefile:70: all] Error 2\n00:08:25 error: Bad exit status from /var/tmp/rpm-tmp.hTSmWG (%build)\n00:08:25 \n00:08:25 \n00:08:25 RPM build errors:\n00:08:25     Bad exit status from /var/tmp/rpm-tmp.hTSmWG (%build)"
        },
        {
            "id": "redhat:1213601619-s390x-kernel",
            "origin": "redhat",
            "checkout_id": "redhat:1213601619",
            "architecture": "s390x",
            "misc": {
                "debug": false
            },
            "duration": 445
        },
        {
            "id": "redhat:1213601619-x86_64-kernel-debug",
            "origin": "redhat",
            "checkout_id": "redhat:1213601619",
            "architecture": "x86_64",
            "misc": {
                "debug": true
            },
            "duration": 445
        },
        {
            "id": "redhat:1213601619-ppc64le-kernel-debug",
            "origin": "redhat",
            "checkout_id": "redhat:1213601619",
            "architecture": "ppc64le",
            "misc": {
                "debug": true
            },
            "duration": 445
        },
        {
            "id": "redhat:1213601619-aarch64-kernel-debug",
            "origin": "redhat",
            "checkout_id": "redhat:1213601619",
            "architecture": "aarch64",
            "misc": {
                "debug": true
            },
            "duration": 445
        },
        {
            "id": "redhat:1213601619-s390x-kernel-debug",
            "origin": "redhat",
            "checkout_id": "redhat:1213601619",
            "architecture": "s390x",
            "misc": {
                "debug": true
            },
            "duration": 445
        }
    ]
}