{
    "checkouts": [
        {
            "id": "redhat:1567217481",
            "origin": "redhat",
            "tree_name": "upstream-mainline",
            "git_repository_url": "https://git.kernel.org/pub/scm/linux/kernel/git/torvalds/linux.git",
            "git_repository_branch": "master",
            "git_commit_hash": "d8b78066f4c9c8ec898bd4246fc4db31d476dd88",
            "git_commit_name": "v6.12-11716-gd8b78066f4c9",
            "patchset_hash": "",
            "comment": "Merge tag 'tty-6.13-rc1' of git://git.kernel.org/pub/scm/linux/kernel/git/gregkh/tty",
            "start_time": "2024-11-30T18:17:23.359834Z",
            "log_excerpt": "",
            "valid": true,
            "misc": {
                "kcidb": { "version": { "major": 4, "minor": 2 } },
                "iid": 204118,
                "is_public": true,
                "is_missing_triage": false,
                "actions": { "last_triaged_at": "2024-11-30T18:20:02.333359Z" },
                "scratch": false,
                "retrigger": false,
                "kernel_version": "6.12.0",
                "source_package_name": "kernel",
                "provenance": [
                    {
                        "url": "https://gitlab.com/redhat/red-hat-ci-tools/kernel/cki-internal-pipelines/cki-trusted-contributors/-/pipelines/1567217481",
                        "function": "coordinator",
                        "service_name": "gitlab"
                    }
                ]
            }
        }
    ],
    "builds": [
        {
            "checkout_id": "redhat:1567217481",
            "id": "redhat:1567217481-x86_64-kernel-debug",
            "origin": "redhat",
            "comment": "CKI build of upstream-mainline",
            "start_time": "2024-11-30T18:21:27.569729Z",
            "architecture": "x86_64",
            "command": "make LLVM=1 -j16 targz-pkg",
            "compiler": "clang version 19.1.0 (Fedora 19.1.0-1.fc42)",
            "output_files": [
                {
                    "url": "https://s3.amazonaws.com/arr-cki-prod-trusted-artifacts/trusted-artifacts/1567217481/build_x86_64_debug/8510477298/artifacts/buildroot-build.txt",
                    "name": "buildroot-build.txt"
                }
            ],
            "config_name": "olddefconfig + kselftest-merge",
            "config_url": "https://s3.amazonaws.com/arr-cki-prod-trusted-artifacts/trusted-artifacts/1567217481/build_x86_64_debug/8510477298/artifacts/kernel-upstream-mainline-redhat_1567217481-x86_64-kernel-debug.config",
            "log_url": "https://s3.amazonaws.com/arr-cki-prod-trusted-artifacts/trusted-artifacts/1567217481/build_x86_64_debug/8510477298/artifacts/build.log",
            "log_excerpt": "00:00:06 Extend memmap on extra space for more information on page (PAGE_EXTENSION) [Y/?] y\n00:00:06 Debug page memory allocations (DEBUG_PAGEALLOC) [N/y/?] n\n00:00:06 Enable SLUB debugging support (SLUB_DEBUG) [Y/?] y\n00:00:06   SLUB debugging on by default (SLUB_DEBUG_ON) [Y/n/?] y\n00:00:06   Enable UAF detection in TYPESAFE_BY_RCU caches (for KASAN) (SLUB_RCU_DEBUG) [Y/n/?] (NEW) \n00:00:06 Error in reading or end of file.\n00:00:06 \n00:00:06 Track page owner (PAGE_OWNER) [Y/n/?] y\n00:00:06 Check for invalid mappings in user page tables (PAGE_TABLE_CHECK) [N/y/?] n\n00:00:06 Poison pages after freeing (PAGE_POISONING) [Y/n/?] y\n00:00:06 Enable tracepoint to track down page reference manipulation (DEBUG_PAGE_REF) [N/y/?] n\n--\n00:00:06   choice[1]: 1\n00:00:06   Instrumentation type\n00:00:06     1. Outline instrumentation (KASAN_OUTLINE) (NEW)\n00:00:06   > 2. Inline instrumentation (KASAN_INLINE) (NEW)\n00:00:06   choice[1-2?]: \n00:00:06 Error in reading or end of file.\n00:00:06   Stack instrumentation (unsafe) (KASAN_STACK) [N/y/?] (NEW) \n00:00:06 Error in reading or end of file.\n00:00:06 \n00:00:06   Check accesses to vmalloc allocations (KASAN_VMALLOC) [N/y/?] (NEW) \n00:00:06 Error in reading or end of file.\n00:00:06 \n00:00:06   KUnit-compatible tests of KASAN bug detection capabilities (KASAN_KUNIT_TEST) [M/n/?] (NEW) \n00:00:06 Error in reading or end of file.\n00:00:06 \n00:00:06   Record and report more information (KASAN_EXTRA_INFO) [N/y/?] (NEW) \n00:00:06 Error in reading or end of file.\n00:00:06 \n00:00:07   UPD     include/config/kernel.release\n00:00:09   GEN     arch/x86/include/generated/asm/orc_hash.h\n00:00:09   WRAP    arch/x86/include/generated/uapi/asm/bpf_perf_event.h\n00:00:09   WRAP    arch/x86/include/generated/uapi/asm/errno.h\n--\n00:32:41   LD [M]  drivers/iio/imu/bno055/bno055_ser.o\n00:32:41   CC [M]  drivers/iio/pressure/mpl115.o\n00:32:41   CC [M]  drivers/iio/pressure/mpl115_i2c.o\n00:32:41   CC [M]  drivers/iio/imu/st_lsm6dsx/st_lsm6dsx_core.o\n00:32:41   CC [M]  drivers/iio/proximity/sx_common.o\n00:32:41 drivers/gpu/drm/amd/amdgpu/../display/dc/dml2/display_mode_core.c:6712:12: error: stack frame size (4160) exceeds limit (3072) in 'dml_core_mode_support' [-Werror,-Wframe-larger-than]\n00:32:41  6712 | dml_bool_t dml_core_mode_support(struct display_mode_lib_st *mode_lib)\n00:32:41       |            ^\n00:32:41   CC [M]  drivers/gpu/drm/amd/amdgpu/../display/dc/dml2/dml21/src/dml2_top/dml2_top_optimization.o\n00:32:41   CC [M]  drivers/gpu/drm/amd/amdgpu/../display/dc/dml2/dml21/src/inc/dml2_debug.o\n00:32:42   CC [M]  drivers/gpu/drm/amd/amdgpu/../display/dc/dml2/dml21/src/dml2_core/dml2_core_dcn4.o\n--\n00:32:48   CC [M]  drivers/gpu/drm/amd/amdgpu/../display/dc/spl/dc_spl.o\n00:32:48   CC [M]  drivers/gpu/drm/amd/amdgpu/../display/dc/spl/dc_spl_scl_filters.o\n00:32:48   LD [M]  drivers/iio/industrialio.o\n00:32:48 1 error generated.\n00:32:48   CC [M]  drivers/gpu/drm/amd/amdgpu/../display/dc/spl/dc_spl_scl_easf_filters.o\n00:32:48 make[8]: *** [scripts/Makefile.build:229: drivers/gpu/drm/amd/amdgpu/../display/dc/dml2/display_mode_core.o] Error 1\n00:32:48 make[8]: *** Waiting for unfinished jobs....\n00:32:48 drivers/gpu/drm/amd/amdgpu/../display/dc/dml2/dml21/src/dml2_core/dml2_core_dcn4_calcs.c:7021:13: error: stack frame size (3160) exceeds limit (3072) in 'dml_core_mode_support' [-Werror,-Wframe-larger-than]\n00:32:48  7021 | static bool dml_core_mode_support(struct dml2_core_calcs_mode_support_ex *in_out_params)\n00:32:48       |             ^\n00:32:59 1 error generated.\n00:32:59 make[8]: *** [scripts/Makefile.build:229: drivers/gpu/drm/amd/amdgpu/../display/dc/dml2/dml21/src/dml2_core/dml2_core_dcn4_calcs.o] Error 1\n00:32:59 make[7]: *** [scripts/Makefile.build:485: drivers/gpu/drm/amd/amdgpu] Error 2\n00:32:59 make[6]: *** [scripts/Makefile.build:485: drivers/gpu/drm] Error 2\n00:32:59 make[5]: *** [scripts/Makefile.build:485: drivers/gpu] Error 2\n00:32:59 make[4]: *** [scripts/Makefile.build:485: drivers] Error 2\n00:32:59 make[3]: *** [Makefile:1943: .] Error 2\n00:32:59 make[2]: *** [scripts/Makefile.package:165: tar-install] Error 2\n00:32:59 make[1]: *** [/builds/8510477298/workdir/Makefile:1565: targz-pkg] Error 2\n00:32:59 make: *** [Makefile:224: __sub-make] Error 2",
            "valid": false,
            "misc": {
                "kcidb": { "version": { "major": 4, "minor": 2 } },
                "iid": 742939,
                "is_public": true,
                "is_missing_triage": true,
                "actions": { "last_triaged_at": "2024-12-11T14:23:34.917280Z" },
                "debug": true,
                "package_name": "kernel-debug",
                "retrigger": false,
                "provenance": [
                    {
                        "url": "https://gitlab.com/redhat/red-hat-ci-tools/kernel/cki-internal-pipelines/cki-trusted-contributors/-/jobs/8510477298",
                        "function": "executor",
                        "service_name": "gitlab"
                    }
                ]
            }
        },
        {
            "checkout_id": "redhat:1567217481",
            "id": "redhat:1567217481-x86_64-kernel",
            "origin": "redhat",
            "comment": "CKI build of upstream-mainline",
            "start_time": "2024-11-30T18:20:57.013420Z",
            "architecture": "x86_64",
            "command": "make LLVM=1 -j16 INSTALL_MOD_STRIP=1 targz-pkg",
            "compiler": "clang version 19.1.0 (Fedora 19.1.0-1.fc42)",
            "output_files": [
                {
                    "url": "https://s3.amazonaws.com/arr-cki-prod-trusted-artifacts/trusted-artifacts/1567217481/build_x86_64/8510477297/artifacts/buildroot-build.txt",
                    "name": "buildroot-build.txt"
                }
            ],
            "config_name": "olddefconfig",
            "config_url": "https://s3.amazonaws.com/arr-cki-prod-trusted-artifacts/trusted-artifacts/1567217481/build_x86_64/8510477297/artifacts/kernel-upstream-mainline-redhat_1567217481-x86_64-kernel.config",
            "log_url": "https://s3.amazonaws.com/arr-cki-prod-trusted-artifacts/trusted-artifacts/1567217481/build_x86_64/8510477297/artifacts/build.log",
            "log_excerpt": "00:00:05 > 1. RSA (MODULE_SIG_KEY_TYPE_RSA)\n00:00:05   2. ECDSA (MODULE_SIG_KEY_TYPE_ECDSA)\n00:00:05 choice[1-2?]: 1\n00:00:05 Provide system-wide ring of trusted keys (SYSTEM_TRUSTED_KEYRING) [Y/?] y\n00:00:05   Additional X.509 keys for default system keyring (SYSTEM_TRUSTED_KEYS) [] (NEW) \n00:00:05 Error in reading or end of file.\n00:00:05 \n00:00:05   Reserve area for inserting a certificate without recompiling (SYSTEM_EXTRA_CERTIFICATE) [Y/n/?] y\n00:00:05     Number of bytes to reserve for the extra certificate (SYSTEM_EXTRA_CERTIFICATE_SIZE) [4096] 4096\n00:00:05   Provide a keyring to which extra trustable keys may be added (SECONDARY_TRUSTED_KEYRING) [Y/n/?] y\n00:00:05     Only allow additional certs signed by keys on the builtin trusted keyring (SECONDARY_TRUSTED_KEYRING_SIGNED_BY_BUILTIN) [N/y/?] n\n--\n00:19:57   CC [M]  drivers/acpi/apei/einj.mod.o\n00:19:57   CC [M]  drivers/acpi/dptf/dptf_power.mod.o\n00:19:57   CC [M]  drivers/acpi/dptf/dptf_pch_fivr.mod.o\n00:19:57   CC [M]  drivers/acpi/acpi_ipmi.mod.o\n00:19:57   CC [M]  drivers/acpi/video.mod.o\n00:19:57 arch/x86/tools/insn_decoder_test: error: malformed line 3720240:\n00:19:57 2_>:ffffffff81c86240\n00:19:57   CC [M]  drivers/acpi/acpi_tad.mod.o\n00:19:57 make[4]: *** [arch/x86/tools/Makefile:26: posttest] Error 3\n00:19:57 make[3]: *** [arch/x86/Makefile:310: bzImage] Error 2\n00:19:57 make[3]: *** Waiting for unfinished jobs....\n00:19:57   CC [M]  drivers/acpi/platform_profile.mod.o\n00:19:57   CC [M]  drivers/acpi/nfit/nfit.mod.o\n00:19:57   CC [M]  drivers/acpi/sbshc.mod.o\n00:19:57   CC [M]  drivers/acpi/sbs.mod.o\n--\n00:23:45   BTF [M] net/nsh/nsh.ko\n00:23:45   BTF [M] net/qrtr/qrtr.ko\n00:23:45   BTF [M] net/hsr/hsr.ko\n00:23:45   LD [M]  net/qrtr/qrtr-mhi.ko\n00:23:45   BTF [M] net/qrtr/qrtr-mhi.ko\n00:23:45 make[2]: *** [scripts/Makefile.package:165: tar-install] Error 2\n00:23:45 make[1]: *** [/builds/8510477297/workdir/Makefile:1565: targz-pkg] Error 2\n00:23:45 make: *** [Makefile:224: __sub-make] Error 2",
            "valid": false,
            "misc": {
                "kcidb": { "version": { "major": 4, "minor": 2 } },
                "iid": 742938,
                "is_public": true,
                "is_missing_triage": false,
                "actions": { "last_triaged_at": "2024-12-11T14:23:35.679890Z" },
                "debug": false,
                "package_name": "kernel",
                "retrigger": false,
                "provenance": [
                    {
                        "url": "https://gitlab.com/redhat/red-hat-ci-tools/kernel/cki-internal-pipelines/cki-trusted-contributors/-/jobs/8510477297",
                        "function": "executor",
                        "service_name": "gitlab"
                    }
                ]
            }
        },
        {
            "checkout_id": "redhat:1567217481",
            "id": "redhat:1567217481-s390x-kernel",
            "origin": "redhat",
            "comment": "CKI build of upstream-mainline",
            "start_time": "2024-11-30T18:21:29.289728Z",
            "duration": 800,
            "architecture": "s390x",
            "command": "make CC=clang -j16 INSTALL_MOD_STRIP=1 targz-pkg",
            "compiler": "clang version 19.1.0 (Fedora 19.1.0-1.fc42)",
            "output_files": [
                {
                    "url": "https://s3.amazonaws.com/arr-cki-prod-trusted-artifacts/trusted-artifacts/1567217481/build_s390x/8510477301/artifacts/buildroot-build.txt",
                    "name": "buildroot-build.txt"
                },
                {
                    "url": "https://s3.amazonaws.com/arr-cki-prod-trusted-artifacts/trusted-artifacts/1567217481/publish_s390x/8510477306/artifacts/kernel-upstream-mainline-redhat_1567217481-s390x-kernel.tar.gz",
                    "name": "kernel_package_url"
                }
            ],
            "config_name": "olddefconfig",
            "config_url": "https://s3.amazonaws.com/arr-cki-prod-trusted-artifacts/trusted-artifacts/1567217481/build_s390x/8510477301/artifacts/kernel-upstream-mainline-redhat_1567217481-s390x-kernel.config",
            "log_url": "https://s3.amazonaws.com/arr-cki-prod-trusted-artifacts/trusted-artifacts/1567217481/build_s390x/8510477301/artifacts/build.log",
            "log_excerpt": "",
            "valid": true,
            "misc": {
                "kcidb": { "version": { "major": 4, "minor": 2 } },
                "iid": 742937,
                "is_public": true,
                "is_missing_triage": false,
                "actions": { "last_triaged_at": "2024-11-30T18:43:02.662620Z" },
                "debug": false,
                "package_name": "kernel",
                "retrigger": false,
                "provenance": [
                    {
                        "url": "https://gitlab.com/redhat/red-hat-ci-tools/kernel/cki-internal-pipelines/cki-trusted-contributors/-/jobs/8510477301",
                        "function": "executor",
                        "service_name": "gitlab"
                    }
                ]
            }
        },
        {
            "checkout_id": "redhat:1567217481",
            "id": "redhat:1567217481-ppc64le-kernel",
            "origin": "redhat",
            "comment": "CKI build of upstream-mainline",
            "start_time": "2024-11-30T18:21:57.617335Z",
            "architecture": "ppc64le",
            "command": "make LLVM=1 -j48 INSTALL_MOD_STRIP=1 targz-pkg",
            "compiler": "clang version 19.1.0 (Fedora 19.1.0-1.fc42)",
            "output_files": [
                {
                    "url": "https://s3.amazonaws.com/arr-cki-prod-trusted-artifacts/trusted-artifacts/1567217481/build_ppc64le/8510477299/artifacts/buildroot-build.txt",
                    "name": "buildroot-build.txt"
                }
            ],
            "config_name": "olddefconfig",
            "config_url": "https://s3.amazonaws.com/arr-cki-prod-trusted-artifacts/trusted-artifacts/1567217481/build_ppc64le/8510477299/artifacts/kernel-upstream-mainline-redhat_1567217481-ppc64le-kernel.config",
            "log_url": "https://s3.amazonaws.com/arr-cki-prod-trusted-artifacts/trusted-artifacts/1567217481/build_ppc64le/8510477299/artifacts/build.log",
            "log_excerpt": "00:00:18 > 1. RSA (MODULE_SIG_KEY_TYPE_RSA)\n00:00:18   2. ECDSA (MODULE_SIG_KEY_TYPE_ECDSA)\n00:00:18 choice[1-2?]: 1\n00:00:18 Provide system-wide ring of trusted keys (SYSTEM_TRUSTED_KEYRING) [Y/?] y\n00:00:18   Additional X.509 keys for default system keyring (SYSTEM_TRUSTED_KEYS) [] (NEW) \n00:00:18 Error in reading or end of file.\n00:00:19 \n00:00:19   Reserve area for inserting a certificate without recompiling (SYSTEM_EXTRA_CERTIFICATE) [Y/n/?] y\n00:00:19     Number of bytes to reserve for the extra certificate (SYSTEM_EXTRA_CERTIFICATE_SIZE) [4096] 4096\n00:00:19   Provide a keyring to which extra trustable keys may be added (SECONDARY_TRUSTED_KEYRING) [Y/n/?] y\n00:00:19     Only allow additional certs signed by keys on the builtin trusted keyring (SECONDARY_TRUSTED_KEYRING_SIGNED_BY_BUILTIN) [N/y/?] n\n--\n00:07:32   CC [M]  fs/xfs/xfs_mount.o\n00:07:32   CC [M]  fs/bcachefs/error.o\n00:07:32   CC [M]  fs/xfs/xfs_mru_cache.o\n00:07:32   CC [M]  fs/xfs/xfs_pwork.o\n00:07:32   CC [M]  drivers/gpu/drm/nouveau/nvkm/subdev/i2c/bit.o\n00:07:32 drivers/gpu/drm/amd/amdgpu/vcn_v5_0_0.c:767:12: error: stack frame size (2352) exceeds limit (2048) in 'vcn_v5_0_0_start' [-Werror,-Wframe-larger-than]\n00:07:32   767 | static int vcn_v5_0_0_start(struct amdgpu_device *adev)\n00:07:32       |            ^\n00:07:32   CC [M]  fs/xfs/xfs_reflink.o\n00:07:32   CC [M]  drivers/gpu/drm/xe/i915-display/intel_pps.o\n00:07:32   CC [M]  drivers/net/ethernet/mellanox/mlx5/core/en/rep/bridge.o\n--\n00:07:33   CC [M]  drivers/gpu/drm/xe/i915-display/intel_psr.o\n00:07:33   CC [M]  drivers/gpu/drm/xe/i915-display/intel_qp_tables.o\n00:07:33   CC [M]  drivers/gpu/drm/nouveau/nvkm/subdev/i2c/auxch.o\n00:07:33   CC [M]  drivers/gpu/drm/xe/i915-display/intel_quirks.o\n00:07:33 1 error generated.\n00:07:33 make[8]: *** [scripts/Makefile.build:229: drivers/gpu/drm/amd/amdgpu/vcn_v5_0_0.o] Error 1\n00:07:33 make[8]: *** Waiting for unfinished jobs....\n00:07:33   CC [M]  drivers/gpu/drm/nouveau/nvkm/subdev/i2c/auxg94.o\n00:07:33   CC [M]  drivers/gpu/drm/nouveau/nvkm/subdev/i2c/auxgf119.o\n00:07:33   CC [M]  fs/xfs/xfs_super.o\n00:07:33   CC [M]  fs/bcachefs/extents.o\n--\n00:07:34   CC [M]  drivers/gpu/drm/nouveau/nvkm/subdev/ltc/gf100.o\n00:07:34   CC [M]  fs/bcachefs/fs-io-direct.o\n00:07:34   CC [M]  fs/bcachefs/fs-io-pagecache.o\n00:07:34   CC [M]  fs/bcachefs/fsck.o\n00:07:34   CC [M]  fs/xfs/xfs_xattr.o\n00:07:34 make[7]: *** [scripts/Makefile.build:485: drivers/gpu/drm/amd/amdgpu] Error 2\n00:07:34 make[7]: *** Waiting for unfinished jobs....\n00:07:34   CC [M]  drivers/gpu/drm/nouveau/nvkm/subdev/ltc/gk104.o\n00:07:34   CC [M]  drivers/gpu/drm/xe/i915-display/skl_universal_plane.o\n00:07:34   CC [M]  drivers/gpu/drm/xe/i915-display/skl_watermark.o\n00:07:35   CC [M]  fs/bcachefs/inode.o\n--\n00:07:57   CC [M]  drivers/gpu/drm/nouveau/nv17_fence.o\n00:07:57   CC [M]  drivers/gpu/drm/nouveau/nv50_fence.o\n00:07:57   CC [M]  drivers/gpu/drm/nouveau/nv84_fence.o\n00:07:57   CC [M]  drivers/gpu/drm/nouveau/nvc0_fence.o\n00:07:58   LD [M]  drivers/gpu/drm/nouveau/nouveau.o\n00:07:59 make[6]: *** [scripts/Makefile.build:485: drivers/gpu/drm] Error 2\n00:07:59 make[5]: *** [scripts/Makefile.build:485: drivers/gpu] Error 2\n00:07:59 make[4]: *** [scripts/Makefile.build:485: drivers] Error 2\n00:07:59 make[3]: *** [Makefile:1943: .] Error 2\n00:07:59 make[2]: *** [scripts/Makefile.package:165: tar-install] Error 2\n00:07:59 make[1]: *** [/builds/8510477299/workdir/Makefile:1565: targz-pkg] Error 2\n00:07:59 make: *** [Makefile:224: __sub-make] Error 2",
            "valid": false,
            "misc": {
                "kcidb": { "version": { "major": 4, "minor": 2 } },
                "iid": 742936,
                "is_public": true,
                "is_missing_triage": true,
                "actions": { "last_triaged_at": "2024-12-11T14:23:35.918850Z" },
                "debug": false,
                "package_name": "kernel",
                "retrigger": false,
                "provenance": [
                    {
                        "url": "https://gitlab.com/redhat/red-hat-ci-tools/kernel/cki-internal-pipelines/cki-trusted-contributors/-/jobs/8510477299",
                        "function": "executor",
                        "service_name": "gitlab"
                    }
                ]
            }
        },
        {
            "checkout_id": "redhat:1567217481",
            "id": "redhat:1567217481-aarch64-kernel",
            "origin": "redhat",
            "comment": "CKI build of upstream-mainline",
            "start_time": "2024-11-30T18:21:06.571486Z",
            "duration": 2541,
            "architecture": "aarch64",
            "command": "make LLVM=1 -j16 INSTALL_MOD_STRIP=1 targz-pkg",
            "compiler": "clang version 19.1.0 (Fedora 19.1.0-1.fc42)",
            "output_files": [
                {
                    "url": "https://s3.amazonaws.com/arr-cki-prod-trusted-artifacts/trusted-artifacts/1567217481/build_aarch64/8510477300/artifacts/buildroot-build.txt",
                    "name": "buildroot-build.txt"
                },
                {
                    "url": "https://s3.amazonaws.com/arr-cki-prod-trusted-artifacts/trusted-artifacts/1567217481/publish_aarch64/8510477305/artifacts/kernel-upstream-mainline-redhat_1567217481-aarch64-kernel.tar.gz",
                    "name": "kernel_package_url"
                }
            ],
            "config_name": "olddefconfig",
            "config_url": "https://s3.amazonaws.com/arr-cki-prod-trusted-artifacts/trusted-artifacts/1567217481/build_aarch64/8510477300/artifacts/kernel-upstream-mainline-redhat_1567217481-aarch64-kernel.config",
            "log_url": "https://s3.amazonaws.com/arr-cki-prod-trusted-artifacts/trusted-artifacts/1567217481/build_aarch64/8510477300/artifacts/build.log",
            "log_excerpt": "",
            "valid": true,
            "misc": {
                "kcidb": { "version": { "major": 4, "minor": 2 } },
                "iid": 742935,
                "is_public": true,
                "is_missing_triage": false,
                "actions": { "last_triaged_at": "2024-11-30T19:12:01.016560Z" },
                "debug": false,
                "package_name": "kernel",
                "retrigger": false,
                "provenance": [
                    {
                        "url": "https://gitlab.com/redhat/red-hat-ci-tools/kernel/cki-internal-pipelines/cki-trusted-contributors/-/jobs/8510477300",
                        "function": "executor",
                        "service_name": "gitlab"
                    }
                ]
            }
        }
    ],
    "tests": [],
    "testresults": [],
    "issueoccurrences": [
        {
            "issue": {
                "id": 3332,
                "kind": { "id": 1, "description": "Kernel bug", "tag": "Kernel Bug" },
                "description": "Kernel build: arch/x86/tools/insn_decoder_test: error: malformed line",
                "ticket_url": "https://github.com/Rust-for-Linux/linux/issues/1134",
                "resolved": false,
                "resolved_at": null,
                "policy": { "id": 1, "name": "public", "read_group": null, "write_group": 5 }
            },
            "is_regression": false,
            "created_at": "2024-12-11T14:23:35.556855Z",
            "checkout_id": null,
            "build_id": "redhat:1567217481-x86_64-kernel",
            "test_id": null,
            "testresult_id": null
        }
    ]
}
